{
  "project_info": {
    "project_number": "565745271953",
    "firebase_url": "https://pia6firebase.firebaseio.com",
    "project_id": "pia6firebase",
    "storage_bucket": "pia6firebase.appspot.com"
  },
  "client": [
    {
      "client_info": {
        "mobilesdk_app_id": "1:565745271953:android:7d1dfe73a8608881",
        "android_client_info": {
          "package_name": "se.magictechnology.pia6vecka4tis"
        }
      },
      "oauth_client": [
        {
          "client_id": "565745271953-rs5bv98u4dl5fmbecl2g8kev863b5a4m.apps.googleusercontent.com",
          "client_type": 3
        }
      ],
      "api_key": [
        {
          "current_key": "AIzaSyCpXF6RN3KVz2zriCrC4ejvOcTvAHjj6vU"
        }
      ],
      "services": {
        "analytics_service": {
          "status": 1
        },
        "appinvite_service": {
          "status": 1,
          "other_platform_oauth_client": []
        },
        "ads_service": {
          "status": 2
        }
      }
    }
  ],
  "configuration_version": "1"
}